<?xml version="1.0" encoding="utf-8"?>
<!-- Generator: Adobe Illustrator 19.1.0, SVG Export Plug-In . SVG Version: 6.00 Build 0)  -->
<svg version="1.1" xmlns="http://www.w3.org/2000/svg" xmlns:xlink="http://www.w3.org/1999/xlink" x="0px" y="0px"
	 viewBox="0 0 75 75" style="enable-background:new 0 0 75 75;" xml:space="preserve">
<style type="text/css">
	.st0{fill:none;stroke:#000000;stroke-width:2;stroke-linecap:round;stroke-miterlimit:10;}
	.st1{fill:none;stroke:#000000;stroke-width:3.5;stroke-linecap:round;stroke-linejoin:round;stroke-miterlimit:10;}
	.st2{fill:none;stroke:#000000;stroke-width:2;stroke-linecap:round;stroke-linejoin:round;stroke-miterlimit:10;}
	.st3{fill-rule:evenodd;clip-rule:evenodd;fill:#040000;}
	
		.st4{fill-rule:evenodd;clip-rule:evenodd;fill:none;stroke:#040000;stroke-width:4;stroke-linecap:round;stroke-linejoin:round;stroke-miterlimit:10;}
	
		.st5{fill-rule:evenodd;clip-rule:evenodd;fill:none;stroke:#040000;stroke-width:2;stroke-linecap:round;stroke-linejoin:round;stroke-miterlimit:10;}
	.st6{fill:#1D1D1B;}
	.st7{fill:#040000;}
</style>
<g id="レイヤー_1">
	<g>
		<g>
			<path d="M50.9,64.2c-0.2-0.1-0.4-0.1-0.5-0.2l-48-30.8c-0.7-0.4-1-1.2-0.9-2c0.1-0.8,0.7-1.4,1.5-1.6l68-18.8
				c0.7-0.2,1.5,0,2,0.6c0.5,0.6,0.7,1.4,0.4,2.1L53.4,63c-0.2,0.6-0.7,1-1.3,1.2C51.7,64.3,51.3,64.3,50.9,64.2z M8.4,32.3l42.1,27
				l17.5-43.5L8.4,32.3z"/>
		</g>
		<g>
			<path d="M19.6,58.5c-0.2-0.1-0.4-0.2-0.6-0.3c-0.6-0.4-0.9-1.1-0.9-1.8l1-13.7c0.1-1.1,1.1-1.9,2.2-1.9c1.1,0.1,1.9,1.1,1.9,2.2
				l-0.8,10.2l9.2-4.5c1-0.5,2.2-0.1,2.7,0.9c0.5,1,0.1,2.2-0.9,2.7l-12.4,6C20.6,58.6,20,58.6,19.6,58.5z"/>
		</g>
		<g>
			<path d="M26,46.3c-0.2-0.1-0.4-0.2-0.6-0.4c-0.3-0.5-0.2-1.1,0.3-1.4l27.6-18.5c0.5-0.3,1.1-0.2,1.4,0.3c0.3,0.5,0.2,1.1-0.3,1.4
				L26.8,46.2C26.6,46.3,26.3,46.4,26,46.3z"/>
		</g>
		<g>
			<path d="M53.7,41.8c0,0-0.1,0-0.1,0c-0.5-0.2-0.8-0.8-0.5-1.3l0.6-1.4c0.2-0.5,0.8-0.8,1.3-0.5c0.5,0.2,0.8,0.8,0.5,1.3l-0.6,1.4
				C54.7,41.7,54.2,41.9,53.7,41.8z"/>
		</g>
		<g>
			<path d="M49.5,51.8c0,0-0.1,0-0.1,0c-0.5-0.2-0.7-0.8-0.5-1.3l2.8-6.3c0.2-0.5,0.8-0.7,1.3-0.5c0.5,0.2,0.7,0.8,0.5,1.3l-2.8,6.3
				C50.5,51.7,49.9,52,49.5,51.8z"/>
		</g>
	</g>
</g>
<g id="レイヤー_2">
</g>
</svg>
